M48
; DRILL file {KiCad 5.1.7-a382d34a88~90~ubuntu20.04.1} date Wed Nov  3 09:55:33 2021
; FORMAT={-:-/ absolute / inch / decimal}
; #@! TF.CreationDate,2021-11-03T09:55:33+05:30
; #@! TF.GenerationSoftware,Kicad,Pcbnew,5.1.7-a382d34a88~90~ubuntu20.04.1
; #@! TF.FileFunction,Plated,1,2,PTH
FMAT,2
INCH
T1C0.0118
T2C0.0157
T3C0.0394
%
G90
G05
T1
X3.545Y-2.595
T2
X3.39Y-2.8
X4.04Y-2.26
X4.2025Y-2.545
X4.2525Y-2.64
X4.285Y-2.8425
X4.315Y-2.4675
T3
X3.79Y-3.2
X3.89Y-3.2
X3.7713Y-2.9
X3.9287Y-2.9
X3.25Y-2.68
X3.25Y-2.78
X3.7713Y-2.54
X3.9287Y-2.54
X4.43Y-2.69
X4.43Y-2.79
X3.8Y-2.22
X3.9Y-2.22
T0
M30
