%TF.GenerationSoftware,KiCad,Pcbnew,5.1.7-a382d34a88~90~ubuntu20.04.1*%
%TF.CreationDate,2021-11-30T13:44:55+05:30*%
%TF.ProjectId,EH-GENERIC_BOARD,45482d47-454e-4455-9249-435f424f4152,rev?*%
%TF.SameCoordinates,Original*%
%TF.FileFunction,Profile,NP*%
%FSLAX46Y46*%
G04 Gerber Fmt 4.6, Leading zero omitted, Abs format (unit mm)*
G04 Created by KiCad (PCBNEW 5.1.7-a382d34a88~90~ubuntu20.04.1) date 2021-11-30 13:44:55*
%MOMM*%
%LPD*%
G01*
G04 APERTURE LIST*
%TA.AperFunction,Profile*%
%ADD10C,0.150000*%
%TD*%
G04 APERTURE END LIST*
D10*
X115011200Y-54254400D02*
X115011200Y-83439000D01*
X80391000Y-83820000D02*
X114579400Y-83820000D01*
X80010000Y-54203600D02*
X80010000Y-83388200D01*
X114630200Y-53822600D02*
X80441800Y-53822600D01*
X114630200Y-53822600D02*
G75*
G02*
X115011200Y-54254400I-25400J-406400D01*
G01*
X115011200Y-83439000D02*
G75*
G02*
X114579400Y-83820000I-406400J25400D01*
G01*
X80391000Y-83820000D02*
G75*
G02*
X80010000Y-83388200I25400J406400D01*
G01*
X80010000Y-54203600D02*
G75*
G02*
X80441800Y-53822600I406400J-25400D01*
G01*
M02*
